(kicad_sch (version 20230121) (generator eeschema)

  (uuid 9697c0e8-dd40-4377-84cc-b90c4aea4ba1)

  (paper "A4")

  (lib_symbols
    (symbol "Device:C" (pin_numbers hide) (pin_names (offset 0.254)) (in_bom yes) (on_board yes)
      (property "Reference" "C" (at 0.635 2.54 0)
        (effects (font (size 1.27 1.27)) (justify left))
      )
      (property "Value" "C" (at 0.635 -2.54 0)
        (effects (font (size 1.27 1.27)) (justify left))
      )
      (property "Footprint" "" (at 0.9652 -3.81 0)
        (effects (font (size 1.27 1.27)) hide)
      )
      (property "Datasheet" "~" (at 0 0 0)
        (effects (font (size 1.27 1.27)) hide)
      )
      (property "ki_keywords" "cap capacitor" (at 0 0 0)
        (effects (font (size 1.27 1.27)) hide)
      )
      (property "ki_description" "Unpolarized capacitor" (at 0 0 0)
        (effects (font (size 1.27 1.27)) hide)
      )
      (property "ki_fp_filters" "C_*" (at 0 0 0)
        (effects (font (size 1.27 1.27)) hide)
      )
      (symbol "C_0_1"
        (polyline
          (pts
            (xy -2.032 -0.762)
            (xy 2.032 -0.762)
          )
          (stroke (width 0.508) (type default))
          (fill (type none))
        )
        (polyline
          (pts
            (xy -2.032 0.762)
            (xy 2.032 0.762)
          )
          (stroke (width 0.508) (type default))
          (fill (type none))
        )
      )
      (symbol "C_1_1"
        (pin passive line (at 0 3.81 270) (length 2.794)
          (name "~" (effects (font (size 1.27 1.27))))
          (number "1" (effects (font (size 1.27 1.27))))
        )
        (pin passive line (at 0 -3.81 90) (length 2.794)
          (name "~" (effects (font (size 1.27 1.27))))
          (number "2" (effects (font (size 1.27 1.27))))
        )
      )
    )
    (symbol "Regulator_Linear:LM1117DT-3.3" (in_bom yes) (on_board yes)
      (property "Reference" "U" (at -3.81 3.175 0)
        (effects (font (size 1.27 1.27)))
      )
      (property "Value" "LM1117DT-3.3" (at 0 3.175 0)
        (effects (font (size 1.27 1.27)) (justify left))
      )
      (property "Footprint" "Package_TO_SOT_SMD:TO-252-3_TabPin2" (at 0 0 0)
        (effects (font (size 1.27 1.27)) hide)
      )
      (property "Datasheet" "http://www.ti.com/lit/ds/symlink/lm1117.pdf" (at 0 0 0)
        (effects (font (size 1.27 1.27)) hide)
      )
      (property "ki_keywords" "linear regulator ldo fixed positive" (at 0 0 0)
        (effects (font (size 1.27 1.27)) hide)
      )
      (property "ki_description" "800mA Low-Dropout Linear Regulator, 3.3V fixed output, TO-252" (at 0 0 0)
        (effects (font (size 1.27 1.27)) hide)
      )
      (property "ki_fp_filters" "TO?252*" (at 0 0 0)
        (effects (font (size 1.27 1.27)) hide)
      )
      (symbol "LM1117DT-3.3_0_1"
        (rectangle (start -5.08 -5.08) (end 5.08 1.905)
          (stroke (width 0.254) (type default))
          (fill (type background))
        )
      )
      (symbol "LM1117DT-3.3_1_1"
        (pin power_in line (at 0 -7.62 90) (length 2.54)
          (name "GND" (effects (font (size 1.27 1.27))))
          (number "1" (effects (font (size 1.27 1.27))))
        )
        (pin power_out line (at 7.62 0 180) (length 2.54)
          (name "VO" (effects (font (size 1.27 1.27))))
          (number "2" (effects (font (size 1.27 1.27))))
        )
        (pin power_in line (at -7.62 0 0) (length 2.54)
          (name "VI" (effects (font (size 1.27 1.27))))
          (number "3" (effects (font (size 1.27 1.27))))
        )
      )
    )
  )

  (junction (at 58.42 36.83) (diameter 0) (color 0 0 0 0)
    (uuid 0309656f-b54d-4402-ad92-1de4d44d26b6)
  )
  (junction (at 72.39 49.53) (diameter 0) (color 0 0 0 0)
    (uuid 146b7898-2232-47f8-8186-5545b4e97cf0)
  )
  (junction (at 85.09 36.83) (diameter 0) (color 0 0 0 0)
    (uuid 2952d6c2-b572-48f4-ac54-08ab316c513c)
  )

  (wire (pts (xy 58.42 36.83) (xy 64.77 36.83))
    (stroke (width 0) (type default))
    (uuid 1f28107e-7af0-4b7c-870a-7fa7a82b28ea)
  )
  (wire (pts (xy 85.09 36.83) (xy 85.09 39.37))
    (stroke (width 0) (type default))
    (uuid 28734f2a-65d9-4791-987f-5b3b486841bc)
  )
  (wire (pts (xy 72.39 49.53) (xy 58.42 49.53))
    (stroke (width 0) (type default))
    (uuid 46d4b3de-3c26-444f-89ca-cc20e91a0a15)
  )
  (wire (pts (xy 85.09 46.99) (xy 85.09 49.53))
    (stroke (width 0) (type default))
    (uuid 52be3796-50da-4e5e-b072-868c38966e3f)
  )
  (wire (pts (xy 54.61 36.83) (xy 58.42 36.83))
    (stroke (width 0) (type default))
    (uuid 699d9417-de7e-4885-a48d-0eef167b5b24)
  )
  (wire (pts (xy 72.39 44.45) (xy 72.39 49.53))
    (stroke (width 0) (type default))
    (uuid 7d795f1e-5e18-40a0-974e-b4230ff61f7e)
  )
  (wire (pts (xy 58.42 49.53) (xy 58.42 46.99))
    (stroke (width 0) (type default))
    (uuid 931dc97e-702a-4145-80b1-9fa444a5e565)
  )
  (wire (pts (xy 58.42 36.83) (xy 58.42 39.37))
    (stroke (width 0) (type default))
    (uuid 9dac2ac0-32f6-49c7-a0f2-902b5897fe02)
  )
  (wire (pts (xy 72.39 49.53) (xy 85.09 49.53))
    (stroke (width 0) (type default))
    (uuid b68720b6-bf76-4817-962d-f228efefb409)
  )
  (wire (pts (xy 85.09 36.83) (xy 91.44 36.83))
    (stroke (width 0) (type default))
    (uuid e2ff40a9-9fc5-4f15-92d6-551cd61f8634)
  )
  (wire (pts (xy 80.01 36.83) (xy 85.09 36.83))
    (stroke (width 0) (type default))
    (uuid f4b4bb0f-a60c-4ab8-b46a-678a6330cd25)
  )

  (text "5V" (at 54.61 36.83 0)
    (effects (font (size 1.27 1.27)) (justify left bottom))
    (uuid 825fb622-58e2-4465-8f01-40a02579e915)
  )
  (text "3.3V\n" (at 91.44 36.83 0)
    (effects (font (size 1.27 1.27)) (justify left bottom))
    (uuid a392edb6-be20-4fb9-acc9-c2b51a73cd45)
  )

  (symbol (lib_id "Regulator_Linear:LM1117DT-3.3") (at 72.39 36.83 0) (unit 1)
    (in_bom yes) (on_board yes) (dnp no) (fields_autoplaced)
    (uuid 5e7ecde9-28d6-46bd-abe5-8659b26d28d1)
    (property "Reference" "U1" (at 72.39 30.48 0)
      (effects (font (size 1.27 1.27)))
    )
    (property "Value" "LM1117DT-3.3" (at 72.39 33.02 0)
      (effects (font (size 1.27 1.27)))
    )
    (property "Footprint" "Package_TO_SOT_SMD:TO-252-3_TabPin2" (at 72.39 36.83 0)
      (effects (font (size 1.27 1.27)) hide)
    )
    (property "Datasheet" "http://www.ti.com/lit/ds/symlink/lm1117.pdf" (at 72.39 36.83 0)
      (effects (font (size 1.27 1.27)) hide)
    )
    (pin "1" (uuid 0058c0bd-7a19-4e8c-8179-f69dd8c3dc8a))
    (pin "2" (uuid 204d172d-31c2-4d75-9d2a-570b5f226d6c))
    (pin "3" (uuid dffdf854-cab8-4396-ae71-3bcbdb02d935))
    (instances
      (project "lin reg"
        (path "/9697c0e8-dd40-4377-84cc-b90c4aea4ba1"
          (reference "U1") (unit 1)
        )
      )
    )
  )

  (symbol (lib_id "Device:C") (at 85.09 43.18 0) (unit 1)
    (in_bom yes) (on_board yes) (dnp no) (fields_autoplaced)
    (uuid ac21e4b7-6f3a-41e7-b5f4-90b25b9eff17)
    (property "Reference" "C2" (at 88.9 41.91 0)
      (effects (font (size 1.27 1.27)) (justify left))
    )
    (property "Value" "10uC" (at 88.9 44.45 0)
      (effects (font (size 1.27 1.27)) (justify left))
    )
    (property "Footprint" "" (at 86.0552 46.99 0)
      (effects (font (size 1.27 1.27)) hide)
    )
    (property "Datasheet" "~" (at 85.09 43.18 0)
      (effects (font (size 1.27 1.27)) hide)
    )
    (pin "1" (uuid c3223a06-e956-43eb-8f18-2b4bce1ebd20))
    (pin "2" (uuid d786d6cf-a22d-4d14-80c8-91c078be2395))
    (instances
      (project "lin reg"
        (path "/9697c0e8-dd40-4377-84cc-b90c4aea4ba1"
          (reference "C2") (unit 1)
        )
      )
    )
  )

  (symbol (lib_id "Device:C") (at 58.42 43.18 0) (unit 1)
    (in_bom yes) (on_board yes) (dnp no) (fields_autoplaced)
    (uuid d37e2c86-22fe-4d19-a0f1-4150262f2403)
    (property "Reference" "C1" (at 62.23 41.91 0)
      (effects (font (size 1.27 1.27)) (justify left))
    )
    (property "Value" "100 uC" (at 62.23 44.45 0)
      (effects (font (size 1.27 1.27)) (justify left))
    )
    (property "Footprint" "" (at 59.3852 46.99 0)
      (effects (font (size 1.27 1.27)) hide)
    )
    (property "Datasheet" "~" (at 58.42 43.18 0)
      (effects (font (size 1.27 1.27)) hide)
    )
    (pin "1" (uuid 5fa6fe58-e751-4f09-bfe9-52c431e1d45c))
    (pin "2" (uuid a7259a50-9588-48fe-b9b3-91357c1dff62))
    (instances
      (project "lin reg"
        (path "/9697c0e8-dd40-4377-84cc-b90c4aea4ba1"
          (reference "C1") (unit 1)
        )
      )
    )
  )

  (sheet_instances
    (path "/" (page "1"))
  )
)
